{
    "/js/laravel-echo.js": "/js/laravel-echo.js?id=798ac206857c020303e5",
    "/css/app.css": "/css/app.css?id=d41d8cd98f00b204e980",
    "/frontend/css/frontend.min.css": "/frontend/css/frontend.min.css?id=31e4f8cce9168ab42061",
    "/frontend/js/frontend.min.js": "/frontend/js/frontend.min.js?id=286ccb91ddb9871a10a2",
    "/backend/css/backend.min.css": "/backend/css/backend.min.css?id=cc0085da20bf9944081b",
    "/backend/css/backend-clinic.min.css": "/backend/css/backend-clinic.min.css?id=613076ddbb924af746ef",
    "/backend/js/backend.min.js": "/backend/js/backend.min.js?id=9679ec0ae6789993a37f",
    "/backend/js/toast-custom.min.js": "/backend/js/toast-custom.min.js?id=25bbb81d99dacfb093ff"
}
