<svg xmlns="http://www.w3.org/2000/svg" xmlns:xlink="http://www.w3.org/1999/xlink" width="132" height="55" viewBox="0 0 132 55">
  <defs>
    <filter id="Path_47" x="0" y="0" width="132" height="55" filterUnits="userSpaceOnUse">
      <feOffset dy="3" input="SourceAlpha"/>
      <feGaussianBlur stdDeviation="3" result="blur"/>
      <feFlood flood-opacity="0.161"/>
      <feComposite operator="in" in2="blur"/>
      <feComposite in="SourceGraphic"/>
    </filter>
  </defs>
  <g id="Download_on_the_App_Store_Badge_US-UK_RGB_wht_092917" transform="translate(8.193 5.191)">
    <g id="Group_18" data-name="Group 18" transform="translate(0.808 0.809)">
      <g id="Group_16" data-name="Group 16" transform="translate(0 0)">
        <g transform="matrix(1, 0, 0, 1, -9, -6)" filter="url(#Path_47)">
          <path id="Path_47-2" data-name="Path 47" d="M8.193,37.873c-.295,0-.582,0-.874-.01A12.261,12.261,0,0,1,5.512,37.7a5.686,5.686,0,0,1-1.6-.53,5.226,5.226,0,0,1-1.351-.983,5.147,5.147,0,0,1-.987-1.351,5.537,5.537,0,0,1-.525-1.6,12.013,12.013,0,0,1-.161-1.814c-.006-.2-.014-.883-.014-.883V8.2s.009-.669.014-.865a11.971,11.971,0,0,1,.16-1.811,5.569,5.569,0,0,1,.525-1.608,5.2,5.2,0,0,1,.981-1.352A5.381,5.381,0,0,1,3.91,1.572a5.628,5.628,0,0,1,1.6-.526A12.161,12.161,0,0,1,7.321.887L8.194.875h99.354l.883.012a11.968,11.968,0,0,1,1.8.157,5.739,5.739,0,0,1,1.615.53,5.409,5.409,0,0,1,2.335,2.341,5.576,5.576,0,0,1,.517,1.595,12.575,12.575,0,0,1,.168,1.825c0,.274,0,.568,0,.861.008.363.008.708.008,1.056V29.5c0,.351,0,.694-.008,1.04,0,.315,0,.6,0,.9a12.325,12.325,0,0,1-.165,1.793,5.553,5.553,0,0,1-.522,1.615,5.3,5.3,0,0,1-.982,1.34,5.233,5.233,0,0,1-1.353.989,5.665,5.665,0,0,1-1.613.532,12.12,12.12,0,0,1-1.807.158c-.283.007-.58.01-.868.01l-1.048,0Z" transform="translate(8.13 5.13)" fill="#fff"/>
        </g>
      </g>
      <g id="_Group_" data-name="&lt;Group&gt;" transform="translate(8.494 6.588)">
        <g id="_Group_2" data-name="&lt;Group&gt;">
          <g id="_Group_3" data-name="&lt;Group&gt;">
            <path id="_Path_" data-name="&lt;Path&gt;" d="M24.57,19.707a5,5,0,0,1,2.383-4.2,5.122,5.122,0,0,0-4.035-2.181c-1.7-.178-3.344,1.016-4.209,1.016-.882,0-2.214-1-3.648-.969a5.374,5.374,0,0,0-4.522,2.758c-1.955,3.385-.5,8.361,1.376,11.1.937,1.34,2.032,2.837,3.465,2.784,1.4-.058,1.926-.894,3.619-.894,1.677,0,2.168.894,3.631.86,1.5-.024,2.453-1.346,3.357-2.7a11.083,11.083,0,0,0,1.535-3.127,4.835,4.835,0,0,1-2.951-4.448Z" transform="translate(-9.609 -7.998)"/>
            <path id="_Path_2" data-name="&lt;Path&gt;" d="M22.062,11.376a4.926,4.926,0,0,0,1.127-3.529,5.012,5.012,0,0,0-3.243,1.678,4.688,4.688,0,0,0-1.156,3.4A4.144,4.144,0,0,0,22.062,11.376Z" transform="translate(-9.864 -7.847)"/>
          </g>
        </g>
        <g id="Group_17" data-name="Group 17" transform="translate(23.483 9.746)">
          <path id="Path_48" data-name="Path 48" d="M42.083,26.888h-4.6l-1.105,3.263H34.427l4.359-12.073h2.025L45.17,30.152H43.187Zm-4.125-1.506h3.648l-1.8-5.3h-.05Z" transform="translate(-34.427 -17.877)"/>
          <path id="Path_49" data-name="Path 49" d="M54.923,25.841c0,2.735-1.464,4.493-3.673,4.493a2.984,2.984,0,0,1-2.77-1.54h-.042v4.36H46.631V21.44H48.38V22.9h.033a3.123,3.123,0,0,1,2.8-1.556C53.45,21.348,54.923,23.114,54.923,25.841Zm-1.857,0c0-1.782-.921-2.954-2.326-2.954-1.381,0-2.309,1.2-2.309,2.954,0,1.774.929,2.961,2.309,2.961,1.405,0,2.326-1.163,2.326-2.961Z" transform="translate(-34.765 -17.967)"/>
          <path id="Path_50" data-name="Path 50" d="M64.888,25.841c0,2.735-1.465,4.493-3.674,4.493a2.984,2.984,0,0,1-2.77-1.54H58.4v4.36H56.6V21.44h1.749V22.9h.033a3.122,3.122,0,0,1,2.8-1.556C63.415,21.348,64.888,23.114,64.888,25.841Zm-1.858,0c0-1.782-.921-2.954-2.326-2.954-1.381,0-2.309,1.2-2.309,2.954,0,1.774.929,2.961,2.309,2.961,1.405,0,2.326-1.163,2.326-2.961Z" transform="translate(-35.042 -17.967)"/>
          <path id="Path_51" data-name="Path 51" d="M71.657,26.782c.134,1.2,1.3,1.983,2.886,1.983,1.523,0,2.619-.786,2.619-1.866,0-.937-.661-1.5-2.226-1.883l-1.565-.377c-2.217-.535-3.246-1.572-3.246-3.255,0-2.083,1.815-3.514,4.392-3.514,2.552,0,4.3,1.431,4.36,3.514H77.053c-.109-1.2-1.105-1.932-2.561-1.932s-2.451.736-2.451,1.807c0,.854.636,1.356,2.192,1.74l1.33.327c2.477.586,3.505,1.581,3.505,3.347,0,2.259-1.8,3.673-4.66,3.673-2.677,0-4.485-1.381-4.6-3.565Z" transform="translate(-35.409 -17.871)"/>
          <path id="Path_52" data-name="Path 52" d="M83.258,19.3v2.083h1.674v1.431H83.258v4.853c0,.754.335,1.105,1.071,1.105a5.646,5.646,0,0,0,.594-.042v1.422a4.962,4.962,0,0,1-1,.084c-1.782,0-2.477-.669-2.477-2.377V22.814h-1.28V21.383h1.28V19.3Z" transform="translate(-35.696 -17.911)"/>
          <path id="Path_53" data-name="Path 53" d="M86.064,25.841c0-2.77,1.631-4.51,4.175-4.51s4.176,1.74,4.176,4.51-1.615,4.51-4.176,4.51S86.064,28.618,86.064,25.841Zm6.51,0c0-1.9-.871-3.021-2.335-3.021S87.9,23.95,87.9,25.841c0,1.907.871,3.02,2.335,3.02s2.335-1.113,2.335-3.02Z" transform="translate(-35.86 -17.967)"/>
          <path id="Path_54" data-name="Path 54" d="M96.185,21.44h1.723v1.5h.042a2.1,2.1,0,0,1,2.117-1.59,2.787,2.787,0,0,1,.619.067v1.69A2.526,2.526,0,0,0,99.875,23a1.821,1.821,0,0,0-1.883,2.025v5.221H96.185Z" transform="translate(-36.141 -17.967)"/>
          <path id="Path_55" data-name="Path 55" d="M109.156,27.656c-.243,1.6-1.8,2.695-3.79,2.695-2.561,0-4.15-1.716-4.15-4.468s1.6-4.552,4.074-4.552c2.435,0,3.967,1.673,3.967,4.342v.619H103.04V26.4a2.293,2.293,0,0,0,2.368,2.493,1.991,1.991,0,0,0,2.033-1.238Zm-6.108-2.627h4.4A2.117,2.117,0,0,0,105.29,22.8a2.228,2.228,0,0,0-2.241,2.234Z" transform="translate(-36.28 -17.967)"/>
        </g>
      </g>
    </g>
    <g id="_Group_4" data-name="&lt;Group&gt;" transform="translate(33.994 8.116)">
      <g id="Group_19" data-name="Group 19">
        <path id="Path_56" data-name="Path 56" d="M37.766,8.731a2.566,2.566,0,0,1,2.73,2.883c0,1.853-1,2.919-2.73,2.919h-2.1v-5.8Zm-1.194,4.981h1.094a1.824,1.824,0,0,0,1.913-2.086,1.829,1.829,0,0,0-1.913-2.075H36.572Z" transform="translate(-35.671 -8.445)"/>
        <path id="Path_57" data-name="Path 57" d="M41.68,12.379a2.074,2.074,0,1,1,4.129,0,2.074,2.074,0,1,1-4.129,0Zm3.241,0c0-.949-.426-1.5-1.174-1.5s-1.174.555-1.174,1.5.423,1.507,1.174,1.507S44.921,13.332,44.921,12.379Z" transform="translate(-35.837 -8.483)"/>
        <path id="Path_58" data-name="Path 58" d="M51.434,14.573h-.9l-.9-3.224h-.068l-.9,3.224h-.888l-1.207-4.378h.876l.784,3.341h.065l.9-3.341h.829l.9,3.341h.068l.78-3.341h.864Z" transform="translate(-35.973 -8.486)"/>
        <path id="Path_59" data-name="Path 59" d="M53.854,10.192h.832v.7h.065a1.311,1.311,0,0,1,1.306-.78,1.424,1.424,0,0,1,1.515,1.628V14.57h-.864V11.953c0-.7-.306-1.053-.945-1.053a1,1,0,0,0-1.045,1.109V14.57h-.864Z" transform="translate(-36.175 -8.483)"/>
        <path id="Path_60" data-name="Path 60" d="M59.094,8.437h.864v6.087h-.864Z" transform="translate(-36.321 -8.437)"/>
        <path id="Path_61" data-name="Path 61" d="M61.218,12.379a2.074,2.074,0,1,1,4.13,0,2.075,2.075,0,1,1-4.13,0Zm3.241,0c0-.949-.426-1.5-1.174-1.5s-1.174.555-1.174,1.5.423,1.507,1.174,1.507S64.458,13.332,64.458,12.379Z" transform="translate(-36.38 -8.483)"/>
        <path id="Path_62" data-name="Path 62" d="M66.4,13.332c0-.788.587-1.242,1.628-1.307l1.186-.068v-.378c0-.462-.306-.723-.9-.723-.482,0-.817.177-.912.487H66.57c.088-.752.8-1.234,1.789-1.234,1.1,0,1.717.546,1.717,1.471V14.57h-.832v-.615h-.068a1.473,1.473,0,0,1-1.315.687,1.323,1.323,0,0,1-1.459-1.31Zm2.814-.374v-.366l-1.069.068c-.6.04-.876.245-.876.631s.342.623.812.623a1.032,1.032,0,0,0,1.134-.957Z" transform="translate(-36.524 -8.483)"/>
        <path id="Path_63" data-name="Path 63" d="M71.348,12.333c0-1.383.711-2.26,1.817-2.26a1.443,1.443,0,0,1,1.343.768h.065v-2.4h.864v6.087h-.828v-.692H74.54a1.519,1.519,0,0,1-1.375.764C72.052,14.6,71.348,13.72,71.348,12.333Zm.893,0c0,.929.438,1.487,1.17,1.487s1.178-.567,1.178-1.484-.455-1.487-1.178-1.487-1.17.563-1.17,1.484Z" transform="translate(-36.661 -8.437)"/>
        <path id="Path_64" data-name="Path 64" d="M79.23,12.379a2.074,2.074,0,1,1,4.129,0,2.074,2.074,0,1,1-4.129,0Zm3.241,0c0-.949-.426-1.5-1.174-1.5s-1.174.555-1.174,1.5.423,1.507,1.174,1.507S82.47,13.332,82.47,12.379Z" transform="translate(-36.879 -8.483)"/>
        <path id="Path_65" data-name="Path 65" d="M84.669,10.192H85.5v.7h.065a1.311,1.311,0,0,1,1.306-.78,1.424,1.424,0,0,1,1.515,1.628V14.57h-.864V11.953c0-.7-.306-1.053-.945-1.053a1,1,0,0,0-1.045,1.109V14.57h-.864Z" transform="translate(-37.031 -8.483)"/>
        <path id="Path_66" data-name="Path 66" d="M93.471,9.074v1.11h.949v.728h-.949v2.251c0,.459.189.659.619.659a2.884,2.884,0,0,0,.329-.02v.72a2.834,2.834,0,0,1-.47.044c-.961,0-1.343-.338-1.343-1.182V10.911h-.7v-.728h.7V9.074Z" transform="translate(-37.232 -8.455)"/>
        <path id="Path_67" data-name="Path 67" d="M95.7,8.437h.856V10.85h.068a1.347,1.347,0,0,1,1.335-.784A1.442,1.442,0,0,1,99.472,11.7v2.827h-.865V11.911c0-.7-.326-1.053-.936-1.053a1.023,1.023,0,0,0-1.1,1.11v2.557H95.7Z" transform="translate(-37.337 -8.437)"/>
        <path id="Path_68" data-name="Path 68" d="M104.649,13.388a1.777,1.777,0,0,1-1.9,1.267,1.989,1.989,0,0,1-2.022-2.26,2.019,2.019,0,0,1,2.019-2.287c1.218,0,1.953.832,1.953,2.207v.3H101.61v.048a1.157,1.157,0,0,0,1.166,1.254,1.049,1.049,0,0,0,1.042-.531Zm-3.039-1.411h2.211a1.056,1.056,0,0,0-1.078-1.134,1.12,1.12,0,0,0-1.134,1.134Z" transform="translate(-37.476 -8.483)"/>
      </g>
    </g>
  </g>
</svg>
